{
  "project_info": {
    "project_number": "589446854653",
    "project_id": "catalogueapp-3112a",
    "storage_bucket": "catalogueapp-3112a.appspot.com"
  },
  "client": [
    {
      "client_info": {
        "mobilesdk_app_id": "1:589446854653:android:2dd219cfc22bb16c624b94",
        "android_client_info": {
          "package_name": "com.example.catalogueapp"
        }
      },
      "oauth_client": [
        {
          "client_id": "589446854653-7p5iau3k7apq31q1dciucdft0quds9i1.apps.googleusercontent.com",
          "client_type": 3
        }
      ],
      "api_key": [
        {
          "current_key": "AIzaSyByGIQsZAeOWMxYObTDqhj5YadMr3k6Qhk"
        }
      ],
      "services": {
        "appinvite_service": {
          "other_platform_oauth_client": [
            {
              "client_id": "589446854653-7p5iau3k7apq31q1dciucdft0quds9i1.apps.googleusercontent.com",
              "client_type": 3
            }
          ]
        }
      }
    }
  ],
  "configuration_version": "1"
}